[gd_scene load_steps=3 format=3 uid="uid://bnpvme3kdcv"]

[ext_resource type="Script" path="res://Scenes/aimer.gd" id="1_p8cbg"]
[ext_resource type="PackedScene" uid="uid://b6f7yy4b87ywt" path="res://Scenes/Planets/planet.tscn" id="2_qcd57"]

[node name="Aimer" type="Node2D"]
script = ExtResource("1_p8cbg")

[node name="Pivot" type="Node2D" parent="."]

[node name="ShipPosition" type="Node2D" parent="Pivot"]
position = Vector2(0, -35)

[node name="Planet" parent="." instance=ExtResource("2_qcd57")]
awaiting_delivery = false
