[gd_scene load_steps=3 format=3 uid="uid://4eqtoon2mfc2"]

[ext_resource type="PackedScene" uid="uid://b6f7yy4b87ywt" path="res://Scenes/Planets/planet.tscn" id="1_0ng4d"]

[sub_resource type="CircleShape2D" id="CircleShape2D_g1378"]
radius = 64.0

[node name="GreenMedium" instance=ExtResource("1_0ng4d")]
wanted_cargo = 3

[node name="Sprite2D" parent="." index="0"]
region_rect = Rect2(128, 48, 32, 32)

[node name="CollisionShape2D" parent="." index="1"]
shape = SubResource("CircleShape2D_g1378")
