[gd_scene load_steps=3 format=3 uid="uid://drqmqmy8k8alp"]

[ext_resource type="Script" path="res://main.gd" id="1_y5p7x"]
[ext_resource type="AudioStream" uid="uid://bo34usmkh8q5v" path="res://Sound/song.wav" id="2_v5b7t"]

[node name="Main" type="Control"]
layout_mode = 3
anchors_preset = 15
anchor_right = 1.0
anchor_bottom = 1.0
grow_horizontal = 2
grow_vertical = 2
script = ExtResource("1_y5p7x")

[node name="MainSong" type="AudioStreamPlayer2D" parent="."]
stream = ExtResource("2_v5b7t")

[connection signal="finished" from="MainSong" to="." method="_on_main_song_finished"]
