[gd_scene load_steps=3 format=3 uid="uid://vopavfrbyrm0"]

[ext_resource type="PackedScene" uid="uid://cmwhd11lkr6en" path="res://Scenes/Ships/rocket_ui.tscn" id="1_hugsa"]
[ext_resource type="PackedScene" uid="uid://c65utel13mm14" path="res://Scenes/Ships/cargo_hold.tscn" id="2_dq02n"]

[node name="RocketUI3" instance=ExtResource("1_hugsa")]

[node name="CargoHold4" parent="Cargo" index="3" instance=ExtResource("2_dq02n")]
position = Vector2(0, -68)

[node name="CargoHold5" parent="Cargo" index="4" instance=ExtResource("2_dq02n")]
position = Vector2(0, -84)
