[gd_scene load_steps=2 format=3 uid="uid://8pkoyk8dytx5"]

[ext_resource type="PackedScene" uid="uid://dmofv7jhvv55j" path="res://Scenes/Ships/ship.tscn" id="1_5fwg5"]

[node name="Ship1" instance=ExtResource("1_5fwg5")]

[node name="RocketBaseSmall" parent="." index="0"]
visible = true

[node name="RocketBaseLarge" parent="." index="1"]
visible = false
